<?xml version="1.0" encoding="UTF-8" standalone="no"?>
<svg
   xmlns:dc="http://purl.org/dc/elements/1.1/"
   xmlns:cc="http://creativecommons.org/ns#"
   xmlns:rdf="http://www.w3.org/1999/02/22-rdf-syntax-ns#"
   xmlns:svg="http://www.w3.org/2000/svg"
   xmlns="http://www.w3.org/2000/svg"
   xmlns:sodipodi="http://sodipodi.sourceforge.net/DTD/sodipodi-0.dtd"
   xmlns:inkscape="http://www.inkscape.org/namespaces/inkscape"
   viewBox="0 0 48 48"
   id="svg2"
   version="1.1"
   inkscape:version="0.91 r13725"
   sodipodi:docname="date.svg">
  <metadata
     id="metadata55">
    <rdf:RDF>
      <cc:Work
         rdf:about="">
        <dc:format>image/svg+xml</dc:format>
        <dc:type
           rdf:resource="http://purl.org/dc/dcmitype/StillImage" />
      </cc:Work>
    </rdf:RDF>
  </metadata>
  <sodipodi:namedview
     pagecolor="#ffffff"
     bordercolor="#666666"
     borderopacity="1"
     objecttolerance="10"
     gridtolerance="10"
     guidetolerance="10"
     inkscape:pageopacity="0"
     inkscape:pageshadow="2"
     inkscape:window-width="640"
     inkscape:window-height="480"
     id="namedview53"
     showgrid="false"
     inkscape:zoom="4.9166667"
     inkscape:cx="24"
     inkscape:cy="24"
     inkscape:current-layer="svg2" />
  <defs
     id="defs4">
    <linearGradient
       id="linearGradient3189"
       gradientUnits="userSpaceOnUse"
       gradientTransform="matrix(0,-1,1,0,-1.5e-6,47.999998)"
       x1="1"
       x2="47">
      <stop
         style="stop-color:#e4e4e4;stop-opacity:1"
         id="stop7" />
      <stop
         offset="1"
         style="stop-color:#eee;stop-opacity:1"
         id="stop9" />
    </linearGradient>
  </defs>
  <g
     id="g11">
    <path
       d="m 36.31 5 c 5.859 4.062 9.688 10.831 9.688 18.5 c 0 12.426 -10.07 22.5 -22.5 22.5 c -7.669 0 -14.438 -3.828 -18.5 -9.688 c 1.037 1.822 2.306 3.499 3.781 4.969 c 4.085 3.712 9.514 5.969 15.469 5.969 c 12.703 0 23 -10.298 23 -23 c 0 -5.954 -2.256 -11.384 -5.969 -15.469 c -1.469 -1.475 -3.147 -2.744 -4.969 -3.781 z m 4.969 3.781 c 3.854 4.113 6.219 9.637 6.219 15.719 c 0 12.703 -10.297 23 -23 23 c -6.081 0 -11.606 -2.364 -15.719 -6.219 c 4.16 4.144 9.883 6.719 16.219 6.719 c 12.703 0 23 -10.298 23 -23 c 0 -6.335 -2.575 -12.06 -6.719 -16.219 z"
       style="opacity:0.05"
       id="path13" />
    <path
       d="m 41.28 8.781 c 3.712 4.085 5.969 9.514 5.969 15.469 c 0 12.703 -10.297 23 -23 23 c -5.954 0 -11.384 -2.256 -15.469 -5.969 c 4.113 3.854 9.637 6.219 15.719 6.219 c 12.703 0 23 -10.298 23 -23 c 0 -6.081 -2.364 -11.606 -6.219 -15.719 z"
       style="opacity:0.1"
       id="path15" />
    <path
       d="m 31.25 2.375 c 8.615 3.154 14.75 11.417 14.75 21.13 c 0 12.426 -10.07 22.5 -22.5 22.5 c -9.708 0 -17.971 -6.135 -21.12 -14.75 a 23 23 0 0 0 44.875 -7 a 23 23 0 0 0 -16 -21.875 z"
       style="opacity:0.2"
       id="path17" />
  </g>
  <path
     d="m 2.094 17 c -0.704 2.207 -1.094 4.559 -1.094 7 0 12.703 10.297 23 23 23 12.703 0 23 -10.297 23 -23 0 -2.441 -0.389 -4.793 -1.094 -7 z"
     style="fill:#ececec;fill-opacity:1"
     id="path19" />
  <path
     d="m 4.281 12.188 c -0.287 0.478 -0.56 0.969 -0.813 1.469 0.25 -0.495 0.529 -0.995 0.813 -1.469 z m -0.813 1.469 c -0.253 0.501 -0.502 1.01 -0.719 1.531 0.218 -0.527 0.463 -1.025 0.719 -1.531 z m 40.25 -1.469 c 0.284 0.473 0.563 0.974 0.813 1.469 -0.252 -0.5 -0.525 -0.991 -0.813 -1.469 z m 0.813 1.469 c 0.256 0.507 0.5 1 0.719 1.531 -0.216 -0.521 -0.466 -1.031 -0.719 -1.531 z m -41.844 1.688 c -0.221 0.543 -0.414 1.093 -0.594 1.656 0.178 -0.558 0.375 -1.118 0.594 -1.656 z m -0.594 1.656 c -0.106 0.332 -0.221 0.662 -0.313 1 l 44.44 0 c -0.091 -0.338 -0.207 -0.668 -0.313 -1 z m 43.813 0 c -0.18 -0.563 -0.373 -1.113 -0.594 -1.656 0.219 0.539 0.416 1.098 0.594 1.656 z"
     style="fill:#000;opacity:0.1;fill-opacity:1;stroke:none;fill-rule:evenodd"
     id="path21" />
  <path
     d="M 24,1 C 13.738,1 5.055,7.72 2.094,17 l 43.813,0 C 42.945,7.72 34.263,1 24.001,1 Z"
     style="fill:#d64936;fill-opacity:1;stroke:none;fill-rule:evenodd"
     id="path23" />
  <path
     d="m 31 12 c 0 1.105 -0.891 2 -1.996 2 -1.109 0 -2 -0.895 -2 -2 0 -1.102 0.891 -1.996 2 -1.996 1.105 0 1.996 0.898 1.996 1.996 m 0 0"
     style="fill:#7f2c20;fill-opacity:1;stroke:none;fill-rule:nonzero"
     id="path25" />
  <path
     d="m 36 12 c 0 1.105 -0.895 2 -2 2 -1.105 0 -1.996 -0.895 -1.996 -2 0 -1.102 0.891 -1.996 1.996 -1.996 1.105 0 2 0.898 2 1.996 m 0 0"
     style="fill:#7f2c20;fill-opacity:1;stroke:none;fill-rule:nonzero"
     id="path27" />
  <path
     d="m 34,13 c 1,0 1,-1 1,-1 0,0 0,-0.996 -1,-0.996 l -4.996,0 c -1,0 -1,0.996 -1,0.996 0,0 0,1 1,1 M 34,13"
     style="fill:#dcdcdc;fill-opacity:1;stroke:none;fill-rule:nonzero"
     id="path29" />
  <path
     d="m 16 12 c 0 1.105 -0.891 2 -1.996 2 -1.105 0 -2 -0.895 -2 -2 0 -1.102 0.895 -1.996 2 -1.996 1.105 0 1.996 0.898 1.996 1.996 m 0 0"
     style="fill:#7f2c20;fill-opacity:1;stroke:none;fill-rule:nonzero"
     id="path31" />
  <path
     d="m 21 12 c 0 1.105 -0.891 2 -1.996 2 -1.105 0 -2 -0.895 -2 -2 0 -1.102 0.895 -1.996 2 -1.996 1.105 0 1.996 0.898 1.996 1.996 m 0 0"
     style="fill:#7f2c20;fill-opacity:1;stroke:none;fill-rule:nonzero"
     id="path33" />
  <path
     d="m 14 13 c -1 0 -1 -1 -1 -1 0 0 0 -0.996 1 -0.996 l 5 0 c 1 0 1 0.996 1 0.996 0 0 0 1 -1 1 m -5 0"
     style="fill:#dcdcdc;fill-opacity:1;stroke:none;fill-rule:nonzero"
     id="path35" />
  <g
     id="g37">
    <path
       d="m 40.03 7.531 c 3.712 4.084 5.969 9.514 5.969 15.469 0 12.703 -10.297 23 -23 23 c -5.954 0 -11.384 -2.256 -15.469 -5.969 4.178 4.291 10.01 6.969 16.469 6.969 c 12.703 0 23 -10.298 23 -23 0 -6.462 -2.677 -12.291 -6.969 -16.469 z"
       style="opacity:0.1"
       id="path39" />
  </g>
  <g
     transform="scale(1.0154981,0.98473842)"
     style="fill:#000;opacity:0.12;fill-opacity:1;stroke:none"
     id="g41">
    <path
       d="m 22.67 27.806 q 0 0.691 -0.218 1.258 -0.218 0.568 -0.615 0.984 -0.388 0.416 -0.936 0.691 -0.549 0.265 -1.22 0.378 l 0 0.057 q 1.674 0.208 2.544 1.069 0.87 0.851 0.87 2.223 0 0.908 -0.312 1.665 -0.303 0.757 -0.927 1.305 -0.624 0.549 -1.58 0.851 -0.955 0.303 -2.261 0.303 -1.031 0 -1.949 -0.161 -0.908 -0.161 -1.712 -0.586 l 0 -1.608 q 0.823 0.435 1.778 0.672 0.965 0.236 1.845 0.236 0.87 0 1.504 -0.189 0.634 -0.189 1.04 -0.539 0.416 -0.35 0.605 -0.861 0.199 -0.511 0.199 -1.145 0 -0.643 -0.255 -1.097 -0.246 -0.463 -0.709 -0.757 -0.463 -0.303 -1.135 -0.445 -0.662 -0.142 -1.504 -0.142 l -1.258 0 0 -1.428 1.258 0 q 0.766 0 1.362 -0.189 0.596 -0.189 0.993 -0.539 0.407 -0.35 0.615 -0.832 0.208 -0.482 0.208 -1.059 0 -0.492 -0.17 -0.88 -0.17 -0.388 -0.482 -0.653 -0.312 -0.274 -0.747 -0.416 -0.435 -0.142 -0.965 -0.142 -1.012 0 -1.788 0.322 -0.766 0.312 -1.466 0.823 l -0.87 -1.182 q 0.359 -0.293 0.795 -0.549 0.445 -0.255 0.965 -0.445 0.52 -0.199 1.107 -0.312 0.596 -0.114 1.258 -0.114 1.022 0 1.788 0.255 0.776 0.255 1.296 0.719 0.52 0.454 0.785 1.088 0.265 0.624 0.265 1.372 z"
       id="path43" />
    <path
       d="m 30.975 38.4 -1.665 0 0 -8.636 q 0 -0.407 0 -0.87 0.009 -0.463 0.019 -0.918 0.019 -0.463 0.028 -0.88 0.019 -0.426 0.028 -0.747 -0.161 0.17 -0.284 0.293 -0.123 0.123 -0.255 0.236 -0.123 0.114 -0.265 0.246 -0.142 0.123 -0.341 0.293 l -1.4 1.145 -0.908 -1.163 3.623 -2.828 1.419 0 0 13.829 z"
       id="path45" />
  </g>
  <g
     transform="scale(1.0154981,0.98473842)"
     style="fill:#868686;fill-opacity:1;stroke:none"
     id="g47">
    <path
       d="m 21.685 26.79 q 0 0.691 -0.218 1.258 -0.218 0.568 -0.615 0.984 -0.388 0.416 -0.936 0.691 -0.549 0.265 -1.22 0.378 l 0 0.057 q 1.674 0.208 2.544 1.069 0.87 0.851 0.87 2.223 0 0.908 -0.312 1.665 -0.303 0.757 -0.927 1.305 -0.624 0.549 -1.58 0.851 -0.955 0.303 -2.261 0.303 -1.031 0 -1.949 -0.161 -0.908 -0.161 -1.712 -0.586 l 0 -1.608 q 0.823 0.435 1.778 0.672 0.965 0.236 1.845 0.236 0.87 0 1.504 -0.189 0.634 -0.189 1.04 -0.539 0.416 -0.35 0.605 -0.861 0.199 -0.511 0.199 -1.145 0 -0.643 -0.255 -1.097 -0.246 -0.463 -0.709 -0.757 -0.463 -0.303 -1.135 -0.445 -0.662 -0.142 -1.504 -0.142 l -1.258 0 0 -1.428 1.258 0 q 0.766 0 1.362 -0.189 0.596 -0.189 0.993 -0.539 0.407 -0.35 0.615 -0.832 0.208 -0.482 0.208 -1.059 0 -0.492 -0.17 -0.88 -0.17 -0.388 -0.482 -0.653 -0.312 -0.274 -0.747 -0.416 -0.435 -0.142 -0.965 -0.142 -1.012 0 -1.788 0.322 -0.766 0.312 -1.466 0.823 l -0.87 -1.182 q 0.359 -0.293 0.795 -0.549 0.445 -0.255 0.965 -0.445 0.52 -0.199 1.107 -0.312 0.596 -0.114 1.258 -0.114 1.022 0 1.788 0.255 0.776 0.255 1.296 0.719 0.52 0.454 0.785 1.088 0.265 0.624 0.265 1.372 z"
       id="path49" />
    <path
       d="m 29.99 37.38 -1.665 0 0 -8.636 q 0 -0.407 0 -0.87 0.009 -0.463 0.019 -0.918 0.019 -0.463 0.028 -0.88 0.019 -0.426 0.028 -0.747 -0.161 0.17 -0.284 0.293 -0.123 0.123 -0.255 0.236 -0.123 0.114 -0.265 0.246 -0.142 0.123 -0.341 0.293 l -1.4 1.145 -0.908 -1.163 3.623 -2.828 1.419 0 0 13.829 z"
       id="path51" />
  </g>
</svg>
